<svg xmlns="http://www.w3.org/2000/svg" width="34.414" height="22" viewBox="0 0 34.414 22">
  <g id="Icon_feather-user-check" data-name="Icon feather-user-check" transform="translate(-1.5 -5.5)">
    <path id="Path_320" data-name="Path 320" d="M19.5,29.5V27.167A4.735,4.735,0,0,0,14.7,22.5H6.3a4.735,4.735,0,0,0-4.8,4.667V29.5" transform="translate(1 -3)" fill="none" stroke="#000" stroke-linecap="round" stroke-linejoin="round" stroke-width="2"/>
    <path id="Path_321" data-name="Path 321" d="M16.75,9.5a5,5,0,1,1-5-5,5,5,0,0,1,5,5Z" transform="translate(-0.25 2)" fill="none" stroke="#000" stroke-linecap="round" stroke-linejoin="round" stroke-width="2"/>
    <path id="Path_322" data-name="Path 322" d="M25.5,16.5l3,3,6-6" transform="translate(0 -1)" fill="none" stroke="#000" stroke-linecap="round" stroke-linejoin="round" stroke-width="2"/>
  </g>
</svg>
