<svg xmlns="http://www.w3.org/2000/svg" width="11.001" height="10" viewBox="0 0 11.001 10">
  <path id="icon" d="M1,10A1,1,0,1,1,1,8h9a1,1,0,1,1,0,2ZM1,6A1,1,0,0,1,1,4h9a1,1,0,0,1,0,2ZM1,2A1,1,0,0,1,1,0h9a1,1,0,0,1,0,2Z"/>
</svg>
